# Fdb version 3
["pdflatex"] 1568948748 "c:/Users/Goofy/Documents/House lease/lease.tex" "c:/Users/Goofy/Documents/House lease/lease.pdf" "lease" 1568948749
  "c:/Users/Goofy/Documents/House lease/lease.aux" 1568948749 3166 17ba0a5ab4fd2d1f9c5c62229401e428 ""
  "c:/Users/Goofy/Documents/House lease/lease.tex" 1568948745 17324 6715b0662256a5819146ed6e147671cd ""
  "c:/texlive/2019/texmf-dist/fonts/map/fontname/texfonts.map" 1568846509 3332 103109f5612ad95229751940c61aada0 ""
  "c:/texlive/2019/texmf-dist/fonts/tfm/public/cm/cmbx10.tfm" 1568845822 1328 c834bbb027764024c09d3d2bf908b5f0 ""
  "c:/texlive/2019/texmf-dist/fonts/tfm/public/cm/cmbx12.tfm" 1568845822 1324 c910af8c371558dc20f2d7822f66fe64 ""
  "c:/texlive/2019/texmf-dist/fonts/tfm/public/cm/cmmi12.tfm" 1568845822 1524 4414a8315f39513458b80dfc63bff03a ""
  "c:/texlive/2019/texmf-dist/fonts/tfm/public/cm/cmmi6.tfm" 1568845822 1512 f21f83efb36853c0b70002322c1ab3ad ""
  "c:/texlive/2019/texmf-dist/fonts/tfm/public/cm/cmmi8.tfm" 1568845822 1520 eccf95517727cb11801f4f1aee3a21b4 ""
  "c:/texlive/2019/texmf-dist/fonts/tfm/public/cm/cmr12.tfm" 1568845822 1288 655e228510b4c2a1abe905c368440826 ""
  "c:/texlive/2019/texmf-dist/fonts/tfm/public/cm/cmr17.tfm" 1568845822 1292 296a67155bdbfc32aa9c636f21e91433 ""
  "c:/texlive/2019/texmf-dist/fonts/tfm/public/cm/cmr6.tfm" 1568845822 1300 b62933e007d01cfd073f79b963c01526 ""
  "c:/texlive/2019/texmf-dist/fonts/tfm/public/cm/cmr8.tfm" 1568845822 1292 21c1c5bfeaebccffdb478fd231a0997d ""
  "c:/texlive/2019/texmf-dist/fonts/tfm/public/cm/cmsy10.tfm" 1568845822 1124 6c73e740cf17375f03eec0ee63599741 ""
  "c:/texlive/2019/texmf-dist/fonts/tfm/public/cm/cmsy6.tfm" 1568845822 1116 933a60c408fc0a863a92debe84b2d294 ""
  "c:/texlive/2019/texmf-dist/fonts/tfm/public/cm/cmsy8.tfm" 1568845822 1120 8b7d695260f3cff42e636090a8002094 ""
  "c:/texlive/2019/texmf-dist/fonts/type1/public/amsfonts/cm/cmbx10.pfb" 1568845286 34811 78b52f49e893bcba91bd7581cdc144c0 ""
  "c:/texlive/2019/texmf-dist/fonts/type1/public/amsfonts/cm/cmbx12.pfb" 1568845286 32080 340ef9bf63678554ee606688e7b5339d ""
  "c:/texlive/2019/texmf-dist/fonts/type1/public/amsfonts/cm/cmr10.pfb" 1568845286 35752 024fb6c41858982481f6968b5fc26508 ""
  "c:/texlive/2019/texmf-dist/fonts/type1/public/amsfonts/cm/cmr12.pfb" 1568845286 32722 d7379af29a190c3f453aba36302ff5a9 ""
  "c:/texlive/2019/texmf-dist/fonts/type1/public/amsfonts/cm/cmr17.pfb" 1568845286 32362 bc3f3eec7ab7d65fe700963d4017d32c ""
  "c:/texlive/2019/texmf-dist/fonts/type1/public/amsfonts/cm/cmsy10.pfb" 1568845286 32569 5e5ddc8df908dea60932f3c484a54c0d ""
  "c:/texlive/2019/texmf-dist/tex/latex/base/article.cls" 1568847010 19933 3097d1b31d3c45dc957096f554529032 ""
  "c:/texlive/2019/texmf-dist/tex/latex/base/inputenc.sty" 1568847010 5052 b64c57f4a38aae0d2745f8298fa50814 ""
  "c:/texlive/2019/texmf-dist/tex/latex/base/omscmr.fd" 1568847010 2472 aa08940f0a4dc6c24ae9f943b04ae0b9 ""
  "c:/texlive/2019/texmf-dist/tex/latex/base/size10.clo" 1568847010 8294 6d6e23d5169c0d89d173f6c7e08a005a ""
  "c:/texlive/2019/texmf-dist/tex/latex/fancyhdr/fancyhdr.sty" 1568846392 11128 a53805799bebfed6358fc1658a18e41f ""
  "c:/texlive/2019/texmf-dist/tex/latex/lastpage/lastpage.sty" 1568847008 9922 eb7d00b99f0f5207f71a5cdcbafceac1 ""
  "c:/texlive/2019/texmf-dist/web2c/texmf.cnf" 1568846966 39543 a0bd1f17d0daea30a3905c0b020d0959 ""
  "c:/texlive/2019/texmf-var/fonts/map/pdftex/updmap/pdftex.map" 1568860211 4693022 672eaea1fbde7a228bfcb68984c6fe19 ""
  "c:/texlive/2019/texmf-var/web2c/pdftex/pdflatex.fmt" 1568860321 4261111 3be39d277356d4d6f8f2e3f98087f0cd ""
  "c:/texlive/2019/texmf.cnf" 1568860186 673 4ae7b2f49cee444c5343a45b5d0f169c ""
  "lease.aux" 1568948749 3166 17ba0a5ab4fd2d1f9c5c62229401e428 "pdflatex"
  "lease.tex" 1568948745 17324 6715b0662256a5819146ed6e147671cd ""
  "lease.toc" 1568948749 1954 4012dc02fa5e1f3be9b1d4dfaa8035e2 "pdflatex"
  (generated)
  "lease.aux"
  "c:/Users/Goofy/Documents/House lease/lease.log"
  "c:/Users/Goofy/Documents/House lease/lease.pdf"
  "lease.toc"
  "lease.log"
  "lease.pdf"
